info face="FrutigerLTStd-Roman" size=28 bold=0 italic=0 charset="" unicode=0 stretchH=100 smooth=1 aa=1 padding=2,2,2,2 spacing=-4,-4
common lineHeight=34 base=24 scaleW=512 scaleH=512 pages=1 packed=0
page id=0 file="fruti.png"
chars count=224
char id=0       x=54   y=114  width=19   height=24   xoffset=-2   yoffset=2    xadvance=14   page=0    chnl=0 
char id=13      x=0    y=0    width=0    height=0    xoffset=-2   yoffset=0    xadvance=0    page=0    chnl=0 
char id=32      x=0    y=0    width=0    height=0    xoffset=-2   yoffset=0    xadvance=8    page=0    chnl=0 
char id=33      x=73   y=114  width=9    height=24   xoffset=1    yoffset=2    xadvance=11   page=0    chnl=0 
char id=34      x=479  y=163  width=12   height=12   xoffset=2    yoffset=2    xadvance=16   page=0    chnl=0 
char id=35      x=82   y=114  width=19   height=24   xoffset=-2   yoffset=2    xadvance=16   page=0    chnl=0 
char id=36      x=265  y=0    width=16   height=30   xoffset=0    yoffset=-1   xadvance=16   page=0    chnl=0 
char id=37      x=378  y=33   width=26   height=26   xoffset=1    yoffset=1    xadvance=28   page=0    chnl=0 
char id=38      x=396  y=63   width=22   height=25   xoffset=0    yoffset=2    xadvance=20   page=0    chnl=0 
char id=39      x=491  y=163  width=8    height=12   xoffset=0    yoffset=2    xadvance=8    page=0    chnl=0 
char id=40      x=281  y=0    width=12   height=30   xoffset=-1   yoffset=0    xadvance=9    page=0    chnl=0 
char id=41      x=293  y=0    width=12   height=30   xoffset=-2   yoffset=0    xadvance=9    page=0    chnl=0 
char id=42      x=351  y=163  width=16   height=16   xoffset=0    yoffset=2    xadvance=16   page=0    chnl=0 
char id=43      x=488  y=139  width=19   height=19   xoffset=-1   yoffset=7    xadvance=17   page=0    chnl=0 
char id=44      x=499  y=163  width=10   height=12   xoffset=-2   yoffset=18   xadvance=8    page=0    chnl=0 
char id=45      x=178  y=183  width=12   height=7    xoffset=-1   yoffset=13   xadvance=9    page=0    chnl=0 
char id=46      x=132  y=183  width=8    height=8    xoffset=0    yoffset=18   xadvance=8    page=0    chnl=0 
char id=47      x=418  y=63   width=14   height=25   xoffset=-3   yoffset=2    xadvance=8    page=0    chnl=0 
char id=48      x=432  y=63   width=18   height=25   xoffset=-1   yoffset=2    xadvance=16   page=0    chnl=0 
char id=49      x=101  y=114  width=12   height=24   xoffset=1    yoffset=2    xadvance=16   page=0    chnl=0 
char id=50      x=113  y=114  width=17   height=24   xoffset=-1   yoffset=2    xadvance=16   page=0    chnl=0 
char id=51      x=450  y=63   width=17   height=25   xoffset=-1   yoffset=2    xadvance=16   page=0    chnl=0 
char id=52      x=130  y=114  width=19   height=24   xoffset=-2   yoffset=2    xadvance=16   page=0    chnl=0 
char id=53      x=467  y=63   width=16   height=25   xoffset=0    yoffset=2    xadvance=16   page=0    chnl=0 
char id=54      x=483  y=63   width=18   height=25   xoffset=-1   yoffset=2    xadvance=16   page=0    chnl=0 
char id=55      x=149  y=114  width=17   height=24   xoffset=-1   yoffset=2    xadvance=16   page=0    chnl=0 
char id=56      x=0    y=89   width=18   height=25   xoffset=-1   yoffset=2    xadvance=16   page=0    chnl=0 
char id=57      x=18   y=89   width=18   height=25   xoffset=-1   yoffset=2    xadvance=16   page=0    chnl=0 
char id=58      x=29   y=163  width=8    height=19   xoffset=0    yoffset=7    xadvance=8    page=0    chnl=0 
char id=59      x=275  y=139  width=10   height=23   xoffset=-2   yoffset=7    xadvance=8    page=0    chnl=0 
char id=60      x=323  y=139  width=19   height=20   xoffset=-1   yoffset=7    xadvance=17   page=0    chnl=0 
char id=61      x=399  y=163  width=19   height=14   xoffset=-1   yoffset=10   xadvance=17   page=0    chnl=0 
char id=62      x=342  y=139  width=19   height=20   xoffset=-1   yoffset=7    xadvance=17   page=0    chnl=0 
char id=63      x=166  y=114  width=15   height=24   xoffset=0    yoffset=2    xadvance=14   page=0    chnl=0 
char id=64      x=36   y=89   width=25   height=25   xoffset=-1   yoffset=2    xadvance=22   page=0    chnl=0 
char id=65      x=181  y=114  width=24   height=24   xoffset=-2   yoffset=2    xadvance=20   page=0    chnl=0 
char id=66      x=205  y=114  width=17   height=24   xoffset=0    yoffset=2    xadvance=17   page=0    chnl=0 
char id=67      x=61   y=89   width=20   height=25   xoffset=-1   yoffset=2    xadvance=17   page=0    chnl=0 
char id=68      x=222  y=114  width=21   height=24   xoffset=0    yoffset=2    xadvance=20   page=0    chnl=0 
char id=69      x=243  y=114  width=16   height=24   xoffset=0    yoffset=2    xadvance=16   page=0    chnl=0 
char id=70      x=259  y=114  width=15   height=24   xoffset=0    yoffset=2    xadvance=14   page=0    chnl=0 
char id=71      x=81   y=89   width=21   height=25   xoffset=-1   yoffset=2    xadvance=20   page=0    chnl=0 
char id=72      x=274  y=114  width=20   height=24   xoffset=0    yoffset=2    xadvance=20   page=0    chnl=0 
char id=73      x=294  y=114  width=8    height=24   xoffset=0    yoffset=2    xadvance=8    page=0    chnl=0 
char id=74      x=102  y=89   width=13   height=25   xoffset=-2   yoffset=2    xadvance=11   page=0    chnl=0 
char id=75      x=302  y=114  width=21   height=24   xoffset=0    yoffset=2    xadvance=19   page=0    chnl=0 
char id=76      x=323  y=114  width=16   height=24   xoffset=0    yoffset=2    xadvance=14   page=0    chnl=0 
char id=77      x=339  y=114  width=26   height=24   xoffset=0    yoffset=2    xadvance=26   page=0    chnl=0 
char id=78      x=365  y=114  width=20   height=24   xoffset=0    yoffset=2    xadvance=20   page=0    chnl=0 
char id=79      x=115  y=89   width=24   height=25   xoffset=-1   yoffset=2    xadvance=22   page=0    chnl=0 
char id=80      x=385  y=114  width=17   height=24   xoffset=0    yoffset=2    xadvance=16   page=0    chnl=0 
char id=81      x=154  y=33   width=24   height=28   xoffset=-1   yoffset=2    xadvance=22   page=0    chnl=0 
char id=82      x=402  y=114  width=19   height=24   xoffset=0    yoffset=2    xadvance=17   page=0    chnl=0 
char id=83      x=139  y=89   width=16   height=25   xoffset=-1   yoffset=2    xadvance=14   page=0    chnl=0 
char id=84      x=421  y=114  width=20   height=24   xoffset=-2   yoffset=2    xadvance=16   page=0    chnl=0 
char id=85      x=155  y=89   width=20   height=25   xoffset=0    yoffset=2    xadvance=20   page=0    chnl=0 
char id=86      x=441  y=114  width=23   height=24   xoffset=-2   yoffset=2    xadvance=19   page=0    chnl=0 
char id=87      x=464  y=114  width=32   height=24   xoffset=-2   yoffset=2    xadvance=28   page=0    chnl=0 
char id=88      x=0    y=139  width=23   height=24   xoffset=-2   yoffset=2    xadvance=19   page=0    chnl=0 
char id=89      x=23   y=139  width=23   height=24   xoffset=-2   yoffset=2    xadvance=19   page=0    chnl=0 
char id=90      x=46   y=139  width=19   height=24   xoffset=-2   yoffset=2    xadvance=16   page=0    chnl=0 
char id=91      x=305  y=0    width=10   height=30   xoffset=0    yoffset=0    xadvance=9    page=0    chnl=0 
char id=92      x=175  y=89   width=14   height=25   xoffset=-3   yoffset=2    xadvance=8    page=0    chnl=0 
char id=93      x=315  y=0    width=10   height=30   xoffset=-1   yoffset=0    xadvance=9    page=0    chnl=0 
char id=94      x=367  y=163  width=18   height=16   xoffset=-1   yoffset=2    xadvance=17   page=0    chnl=0 
char id=95      x=242  y=183  width=19   height=6    xoffset=-2   yoffset=24   xadvance=14   page=0    chnl=0 
char id=96      x=104  y=183  width=10   height=9    xoffset=-2   yoffset=1    xadvance=8    page=0    chnl=0 
char id=97      x=361  y=139  width=17   height=20   xoffset=-1   yoffset=7    xadvance=16   page=0    chnl=0 
char id=98      x=288  y=33   width=18   height=27   xoffset=0    yoffset=0    xadvance=17   page=0    chnl=0 
char id=99      x=378  y=139  width=15   height=20   xoffset=-1   yoffset=7    xadvance=12   page=0    chnl=0 
char id=100     x=306  y=33   width=18   height=27   xoffset=-1   yoffset=0    xadvance=17   page=0    chnl=0 
char id=101     x=393  y=139  width=18   height=20   xoffset=-1   yoffset=7    xadvance=16   page=0    chnl=0 
char id=102     x=404  y=33   width=15   height=26   xoffset=-2   yoffset=0    xadvance=11   page=0    chnl=0 
char id=103     x=419  y=33   width=18   height=26   xoffset=-1   yoffset=7    xadvance=17   page=0    chnl=0 
char id=104     x=437  y=33   width=17   height=26   xoffset=0    yoffset=0    xadvance=17   page=0    chnl=0 
char id=105     x=501  y=63   width=8    height=25   xoffset=0    yoffset=1    xadvance=8    page=0    chnl=0 
char id=106     x=8    y=0    width=11   height=32   xoffset=-3   yoffset=1    xadvance=8    page=0    chnl=0 
char id=107     x=454  y=33   width=17   height=26   xoffset=0    yoffset=0    xadvance=16   page=0    chnl=0 
char id=108     x=471  y=33   width=8    height=26   xoffset=0    yoffset=0    xadvance=8    page=0    chnl=0 
char id=109     x=37   y=163  width=25   height=19   xoffset=0    yoffset=7    xadvance=25   page=0    chnl=0 
char id=110     x=62   y=163  width=17   height=19   xoffset=0    yoffset=7    xadvance=17   page=0    chnl=0 
char id=111     x=411  y=139  width=19   height=20   xoffset=-1   yoffset=7    xadvance=17   page=0    chnl=0 
char id=112     x=189  y=89   width=18   height=25   xoffset=0    yoffset=7    xadvance=17   page=0    chnl=0 
char id=113     x=207  y=89   width=18   height=25   xoffset=-1   yoffset=7    xadvance=17   page=0    chnl=0 
char id=114     x=79   y=163  width=13   height=19   xoffset=0    yoffset=7    xadvance=11   page=0    chnl=0 
char id=115     x=430  y=139  width=14   height=20   xoffset=-2   yoffset=7    xadvance=11   page=0    chnl=0 
char id=116     x=496  y=114  width=15   height=24   xoffset=-2   yoffset=3    xadvance=11   page=0    chnl=0 
char id=117     x=444  y=139  width=17   height=20   xoffset=0    yoffset=7    xadvance=17   page=0    chnl=0 
char id=118     x=92   y=163  width=18   height=19   xoffset=-2   yoffset=7    xadvance=14   page=0    chnl=0 
char id=119     x=110  y=163  width=27   height=19   xoffset=-2   yoffset=7    xadvance=23   page=0    chnl=0 
char id=120     x=137  y=163  width=18   height=19   xoffset=-2   yoffset=7    xadvance=14   page=0    chnl=0 
char id=121     x=479  y=33   width=18   height=26   xoffset=-2   yoffset=7    xadvance=14   page=0    chnl=0 
char id=122     x=155  y=163  width=16   height=19   xoffset=-1   yoffset=7    xadvance=14   page=0    chnl=0 
char id=123     x=325  y=0    width=12   height=30   xoffset=-1   yoffset=0    xadvance=9    page=0    chnl=0 
char id=124     x=0    y=0    width=8    height=33   xoffset=-1   yoffset=0    xadvance=6    page=0    chnl=0 
char id=125     x=337  y=0    width=13   height=30   xoffset=-2   yoffset=0    xadvance=9    page=0    chnl=0 
char id=126     x=86   y=183  width=18   height=10   xoffset=-1   yoffset=12   xadvance=17   page=0    chnl=0 
char id=160     x=0    y=0    width=0    height=0    xoffset=-2   yoffset=0    xadvance=8    page=0    chnl=0 
char id=161     x=225  y=89   width=9    height=25   xoffset=1    yoffset=7    xadvance=11   page=0    chnl=0 
char id=162     x=0    y=63   width=16   height=26   xoffset=0    yoffset=4    xadvance=16   page=0    chnl=0 
char id=163     x=65   y=139  width=18   height=24   xoffset=-1   yoffset=2    xadvance=16   page=0    chnl=0 
char id=164     x=171  y=163  width=19   height=19   xoffset=-2   yoffset=5    xadvance=16   page=0    chnl=0 
char id=165     x=83   y=139  width=20   height=24   xoffset=-2   yoffset=2    xadvance=16   page=0    chnl=0 
char id=166     x=503  y=0    width=8    height=28   xoffset=-1   yoffset=3    xadvance=6    page=0    chnl=0 
char id=167     x=178  y=33   width=16   height=28   xoffset=0    yoffset=2    xadvance=16   page=0    chnl=0 
char id=168     x=140  y=183  width=12   height=8    xoffset=-2   yoffset=2    xadvance=8    page=0    chnl=0 
char id=169     x=234  y=89   width=25   height=25   xoffset=-1   yoffset=2    xadvance=22   page=0    chnl=0 
char id=170     x=418  y=163  width=14   height=14   xoffset=-2   yoffset=2    xadvance=10   page=0    chnl=0 
char id=171     x=255  y=163  width=17   height=17   xoffset=-1   yoffset=8    xadvance=16   page=0    chnl=0 
char id=172     x=432  y=163  width=19   height=14   xoffset=-1   yoffset=10   xadvance=17   page=0    chnl=0 
char id=173     x=178  y=183  width=12   height=7    xoffset=-1   yoffset=13   xadvance=9    page=0    chnl=0 
char id=174     x=259  y=89   width=25   height=25   xoffset=-1   yoffset=2    xadvance=22   page=0    chnl=0 
char id=175     x=261  y=183  width=14   height=6    xoffset=-3   yoffset=3    xadvance=8    page=0    chnl=0 
char id=176     x=466  y=163  width=13   height=13   xoffset=-1   yoffset=2    xadvance=11   page=0    chnl=0 
char id=177     x=190  y=163  width=19   height=19   xoffset=-1   yoffset=7    xadvance=17   page=0    chnl=0 
char id=178     x=272  y=163  width=14   height=17   xoffset=-2   yoffset=2    xadvance=10   page=0    chnl=0 
char id=179     x=286  y=163  width=14   height=17   xoffset=-2   yoffset=2    xadvance=10   page=0    chnl=0 
char id=180     x=114  y=183  width=10   height=9    xoffset=0    yoffset=1    xadvance=8    page=0    chnl=0 
char id=181     x=284  y=89   width=17   height=25   xoffset=0    yoffset=7    xadvance=17   page=0    chnl=0 
char id=182     x=194  y=33   width=19   height=28   xoffset=-2   yoffset=2    xadvance=17   page=0    chnl=0 
char id=183     x=124  y=183  width=8    height=9    xoffset=0    yoffset=11   xadvance=8    page=0    chnl=0 
char id=184     x=0    y=183  width=11   height=12   xoffset=0    yoffset=21   xadvance=8    page=0    chnl=0 
char id=185     x=300  y=163  width=10   height=17   xoffset=-1   yoffset=2    xadvance=10   page=0    chnl=0 
char id=186     x=451  y=163  width=15   height=14   xoffset=-2   yoffset=2    xadvance=11   page=0    chnl=0 
char id=187     x=310  y=163  width=17   height=17   xoffset=0    yoffset=8    xadvance=16   page=0    chnl=0 
char id=188     x=16   y=63   width=26   height=26   xoffset=-1   yoffset=1    xadvance=23   page=0    chnl=0 
char id=189     x=42   y=63   width=26   height=26   xoffset=-1   yoffset=1    xadvance=23   page=0    chnl=0 
char id=190     x=68   y=63   width=27   height=26   xoffset=-2   yoffset=1    xadvance=23   page=0    chnl=0 
char id=191     x=301  y=89   width=15   height=25   xoffset=-1   yoffset=7    xadvance=14   page=0    chnl=0 
char id=192     x=350  y=0    width=24   height=30   xoffset=-2   yoffset=-4   xadvance=20   page=0    chnl=0 
char id=193     x=374  y=0    width=24   height=30   xoffset=-2   yoffset=-4   xadvance=20   page=0    chnl=0 
char id=194     x=398  y=0    width=24   height=30   xoffset=-2   yoffset=-4   xadvance=20   page=0    chnl=0 
char id=195     x=66   y=33   width=24   height=29   xoffset=-2   yoffset=-3   xadvance=20   page=0    chnl=0 
char id=196     x=213  y=33   width=24   height=28   xoffset=-2   yoffset=-2   xadvance=20   page=0    chnl=0 
char id=197     x=55   y=0    width=24   height=31   xoffset=-2   yoffset=-5   xadvance=20   page=0    chnl=0 
char id=198     x=103  y=139  width=29   height=24   xoffset=-2   yoffset=2    xadvance=26   page=0    chnl=0 
char id=199     x=79   y=0    width=20   height=31   xoffset=-1   yoffset=2    xadvance=17   page=0    chnl=0 
char id=200     x=422  y=0    width=16   height=30   xoffset=0    yoffset=-4   xadvance=16   page=0    chnl=0 
char id=201     x=438  y=0    width=16   height=30   xoffset=0    yoffset=-4   xadvance=16   page=0    chnl=0 
char id=202     x=454  y=0    width=16   height=30   xoffset=0    yoffset=-4   xadvance=16   page=0    chnl=0 
char id=203     x=237  y=33   width=16   height=28   xoffset=0    yoffset=-2   xadvance=16   page=0    chnl=0 
char id=204     x=470  y=0    width=10   height=30   xoffset=-2   yoffset=-4   xadvance=8    page=0    chnl=0 
char id=205     x=480  y=0    width=10   height=30   xoffset=0    yoffset=-4   xadvance=8    page=0    chnl=0 
char id=206     x=490  y=0    width=13   height=30   xoffset=-3   yoffset=-4   xadvance=8    page=0    chnl=0 
char id=207     x=253  y=33   width=12   height=28   xoffset=-2   yoffset=-2   xadvance=8    page=0    chnl=0 
char id=208     x=132  y=139  width=23   height=24   xoffset=-2   yoffset=2    xadvance=20   page=0    chnl=0 
char id=209     x=90   y=33   width=20   height=29   xoffset=0    yoffset=-3   xadvance=20   page=0    chnl=0 
char id=210     x=99   y=0    width=24   height=31   xoffset=-1   yoffset=-4   xadvance=22   page=0    chnl=0 
char id=211     x=123  y=0    width=24   height=31   xoffset=-1   yoffset=-4   xadvance=22   page=0    chnl=0 
char id=212     x=147  y=0    width=24   height=31   xoffset=-1   yoffset=-4   xadvance=22   page=0    chnl=0 
char id=213     x=0    y=33   width=24   height=30   xoffset=-1   yoffset=-3   xadvance=22   page=0    chnl=0 
char id=214     x=110  y=33   width=24   height=29   xoffset=-1   yoffset=-2   xadvance=22   page=0    chnl=0 
char id=215     x=237  y=163  width=18   height=18   xoffset=-1   yoffset=8    xadvance=17   page=0    chnl=0 
char id=216     x=316  y=89   width=24   height=25   xoffset=-1   yoffset=2    xadvance=22   page=0    chnl=0 
char id=217     x=171  y=0    width=20   height=31   xoffset=0    yoffset=-4   xadvance=20   page=0    chnl=0 
char id=218     x=191  y=0    width=20   height=31   xoffset=0    yoffset=-4   xadvance=20   page=0    chnl=0 
char id=219     x=211  y=0    width=20   height=31   xoffset=0    yoffset=-4   xadvance=20   page=0    chnl=0 
char id=220     x=134  y=33   width=20   height=29   xoffset=0    yoffset=-2   xadvance=20   page=0    chnl=0 
char id=221     x=24   y=33   width=23   height=30   xoffset=-2   yoffset=-4   xadvance=19   page=0    chnl=0 
char id=222     x=155  y=139  width=17   height=24   xoffset=0    yoffset=2    xadvance=16   page=0    chnl=0 
char id=223     x=324  y=33   width=18   height=27   xoffset=0    yoffset=0    xadvance=17   page=0    chnl=0 
char id=224     x=95   y=63   width=17   height=26   xoffset=-1   yoffset=1    xadvance=16   page=0    chnl=0 
char id=225     x=112  y=63   width=17   height=26   xoffset=-1   yoffset=1    xadvance=16   page=0    chnl=0 
char id=226     x=129  y=63   width=17   height=26   xoffset=-1   yoffset=1    xadvance=16   page=0    chnl=0 
char id=227     x=340  y=89   width=17   height=25   xoffset=-1   yoffset=2    xadvance=16   page=0    chnl=0 
char id=228     x=357  y=89   width=17   height=25   xoffset=-1   yoffset=2    xadvance=16   page=0    chnl=0 
char id=229     x=342  y=33   width=17   height=27   xoffset=-1   yoffset=0    xadvance=16   page=0    chnl=0 
char id=230     x=461  y=139  width=27   height=20   xoffset=-1   yoffset=7    xadvance=25   page=0    chnl=0 
char id=231     x=146  y=63   width=15   height=26   xoffset=-1   yoffset=7    xadvance=12   page=0    chnl=0 
char id=232     x=161  y=63   width=18   height=26   xoffset=-1   yoffset=1    xadvance=16   page=0    chnl=0 
char id=233     x=179  y=63   width=18   height=26   xoffset=-1   yoffset=1    xadvance=16   page=0    chnl=0 
char id=234     x=197  y=63   width=18   height=26   xoffset=-1   yoffset=1    xadvance=16   page=0    chnl=0 
char id=235     x=374  y=89   width=18   height=25   xoffset=-1   yoffset=2    xadvance=16   page=0    chnl=0 
char id=236     x=392  y=89   width=10   height=25   xoffset=-2   yoffset=1    xadvance=8    page=0    chnl=0 
char id=237     x=402  y=89   width=10   height=25   xoffset=0    yoffset=1    xadvance=8    page=0    chnl=0 
char id=238     x=412  y=89   width=13   height=25   xoffset=-3   yoffset=1    xadvance=8    page=0    chnl=0 
char id=239     x=172  y=139  width=12   height=24   xoffset=-2   yoffset=2    xadvance=8    page=0    chnl=0 
char id=240     x=359  y=33   width=19   height=27   xoffset=-1   yoffset=0    xadvance=17   page=0    chnl=0 
char id=241     x=184  y=139  width=17   height=24   xoffset=0    yoffset=2    xadvance=17   page=0    chnl=0 
char id=242     x=215  y=63   width=19   height=26   xoffset=-1   yoffset=1    xadvance=17   page=0    chnl=0 
char id=243     x=234  y=63   width=19   height=26   xoffset=-1   yoffset=1    xadvance=17   page=0    chnl=0 
char id=244     x=253  y=63   width=19   height=26   xoffset=-1   yoffset=1    xadvance=17   page=0    chnl=0 
char id=245     x=425  y=89   width=19   height=25   xoffset=-1   yoffset=2    xadvance=17   page=0    chnl=0 
char id=246     x=444  y=89   width=19   height=25   xoffset=-1   yoffset=2    xadvance=17   page=0    chnl=0 
char id=247     x=285  y=139  width=19   height=21   xoffset=-1   yoffset=6    xadvance=17   page=0    chnl=0 
char id=248     x=304  y=139  width=19   height=21   xoffset=-1   yoffset=6    xadvance=17   page=0    chnl=0 
char id=249     x=272  y=63   width=17   height=26   xoffset=0    yoffset=1    xadvance=17   page=0    chnl=0 
char id=250     x=289  y=63   width=17   height=26   xoffset=0    yoffset=1    xadvance=17   page=0    chnl=0 
char id=251     x=306  y=63   width=17   height=26   xoffset=0    yoffset=1    xadvance=17   page=0    chnl=0 
char id=252     x=463  y=89   width=17   height=25   xoffset=0    yoffset=2    xadvance=17   page=0    chnl=0 
char id=253     x=19   y=0    width=18   height=32   xoffset=-2   yoffset=1    xadvance=14   page=0    chnl=0 
char id=254     x=37   y=0    width=18   height=32   xoffset=0    yoffset=0    xadvance=17   page=0    chnl=0 
char id=255     x=231  y=0    width=18   height=31   xoffset=-2   yoffset=2    xadvance=14   page=0    chnl=0 
char id=305     x=209  y=163  width=8    height=19   xoffset=0    yoffset=7    xadvance=8    page=0    chnl=0 
char id=321     x=201  y=139  width=18   height=24   xoffset=-2   yoffset=2    xadvance=14   page=0    chnl=0 
char id=322     x=497  y=33   width=12   height=26   xoffset=-2   yoffset=0    xadvance=8    page=0    chnl=0 
char id=338     x=480  y=89   width=28   height=25   xoffset=-1   yoffset=2    xadvance=26   page=0    chnl=0 
char id=339     x=0    y=163  width=29   height=20   xoffset=-1   yoffset=7    xadvance=26   page=0    chnl=0 
char id=352     x=249  y=0    width=16   height=31   xoffset=-1   yoffset=-4   xadvance=14   page=0    chnl=0 
char id=353     x=323  y=63   width=14   height=26   xoffset=-2   yoffset=1    xadvance=11   page=0    chnl=0 
char id=376     x=265  y=33   width=23   height=28   xoffset=-2   yoffset=-2   xadvance=19   page=0    chnl=0 
char id=381     x=47   y=33   width=19   height=30   xoffset=-2   yoffset=-4   xadvance=16   page=0    chnl=0 
char id=382     x=0    y=114  width=16   height=25   xoffset=-1   yoffset=1    xadvance=14   page=0    chnl=0 
char id=937     x=219  y=139  width=22   height=24   xoffset=-1   yoffset=2    xadvance=20   page=0    chnl=0 
char id=956     x=16   y=114  width=17   height=25   xoffset=0    yoffset=7    xadvance=17   page=0    chnl=0 
char id=960     x=217  y=163  width=20   height=19   xoffset=-2   yoffset=7    xadvance=16   page=0    chnl=0 
char id=8204    x=0    y=0    width=0    height=0    xoffset=-2   yoffset=0    xadvance=0    page=0    chnl=0 
char id=8211    x=190  y=183  width=19   height=7    xoffset=-2   yoffset=13   xadvance=14   page=0    chnl=0 
char id=8212    x=209  y=183  width=33   height=7    xoffset=-2   yoffset=13   xadvance=28   page=0    chnl=0 
char id=8216    x=11   y=183  width=10   height=12   xoffset=-1   yoffset=2    xadvance=8    page=0    chnl=0 
char id=8217    x=21   y=183  width=10   height=12   xoffset=-1   yoffset=2    xadvance=8    page=0    chnl=0 
char id=8218    x=31   y=183  width=10   height=12   xoffset=-1   yoffset=18   xadvance=8    page=0    chnl=0 
char id=8220    x=41   y=183  width=15   height=12   xoffset=0    yoffset=2    xadvance=16   page=0    chnl=0 
char id=8221    x=56   y=183  width=15   height=12   xoffset=0    yoffset=2    xadvance=16   page=0    chnl=0 
char id=8222    x=71   y=183  width=15   height=12   xoffset=0    yoffset=18   xadvance=16   page=0    chnl=0 
char id=8224    x=241  y=139  width=17   height=24   xoffset=-1   yoffset=2    xadvance=16   page=0    chnl=0 
char id=8225    x=258  y=139  width=17   height=24   xoffset=-1   yoffset=2    xadvance=16   page=0    chnl=0 
char id=8226    x=385  y=163  width=14   height=15   xoffset=0    yoffset=7    xadvance=14   page=0    chnl=0 
char id=8230    x=152  y=183  width=26   height=8    xoffset=1    yoffset=18   xadvance=28   page=0    chnl=0 
char id=8240    x=337  y=63   width=32   height=26   xoffset=-2   yoffset=1    xadvance=28   page=0    chnl=0 
char id=8249    x=327  y=163  width=12   height=17   xoffset=-2   yoffset=8    xadvance=8    page=0    chnl=0 
char id=8250    x=339  y=163  width=12   height=17   xoffset=-2   yoffset=8    xadvance=8    page=0    chnl=0 
char id=8260    x=369  y=63   width=27   height=26   xoffset=-7   yoffset=1    xadvance=5    page=0    chnl=0 
char id=8364    x=33   y=114  width=21   height=25   xoffset=-2   yoffset=2    xadvance=16   page=0    chnl=0 
kernings count=422
kerning first=376 second=226 amount=-2
kerning first=192 second=119 amount=-1
kerning first=89 second=252 amount=-2
kerning first=197 second=255 amount=-1
kerning first=114 second=44 amount=-3
kerning first=86 second=45 amount=-1
kerning first=114 second=46 amount=-3
kerning first=118 second=44 amount=-2
kerning first=376 second=105 amount=-1
kerning first=84 second=228 amount=-2
kerning first=80 second=197 amount=-1
kerning first=87 second=58 amount=-1
kerning first=87 second=59 amount=-1
kerning first=70 second=193 amount=-1
kerning first=87 second=196 amount=-1
kerning first=80 second=65 amount=-1
kerning first=89 second=192 amount=-2
kerning first=86 second=198 amount=-1
kerning first=87 second=233 amount=-1
kerning first=376 second=196 amount=-2
kerning first=376 second=233 amount=-2
kerning first=221 second=246 amount=-3
kerning first=321 second=84 amount=-2
kerning first=194 second=86 amount=-1
kerning first=193 second=87 amount=-1
kerning first=76 second=89 amount=-3
kerning first=89 second=227 amount=-2
kerning first=221 second=101 amount=-2
kerning first=86 second=97 amount=-1
kerning first=84 second=99 amount=-2
kerning first=84 second=101 amount=-2
kerning first=102 second=102 amount=-1
kerning first=84 second=105 amount=-1
kerning first=89 second=234 amount=-2
kerning first=89 second=196 amount=-2
kerning first=86 second=226 amount=-1
kerning first=89 second=112 amount=-2
kerning first=89 second=113 amount=-2
kerning first=84 second=114 amount=-2
kerning first=84 second=115 amount=-2
kerning first=8217 second=116 amount=-1
kerning first=221 second=117 amount=-2
kerning first=89 second=118 amount=-1
kerning first=65 second=119 amount=-1
kerning first=192 second=84 amount=-2
kerning first=192 second=121 amount=-1
kerning first=84 second=97 amount=-2
kerning first=89 second=226 amount=-2
kerning first=8217 second=8217 amount=-2
kerning first=221 second=192 amount=-2
kerning first=221 second=232 amount=-2
kerning first=195 second=119 amount=-1
kerning first=376 second=192 amount=-2
kerning first=197 second=118 amount=-1
kerning first=86 second=192 amount=-1
kerning first=65 second=221 amount=-2
kerning first=86 second=59 amount=-2
kerning first=197 second=89 amount=-2
kerning first=221 second=225 amount=-2
kerning first=80 second=192 amount=-1
kerning first=89 second=193 amount=-2
kerning first=376 second=250 amount=-2
kerning first=87 second=195 amount=-1
kerning first=86 second=196 amount=-1
kerning first=221 second=197 amount=-2
kerning first=80 second=198 amount=-1
kerning first=221 second=59 amount=-3
kerning first=84 second=248 amount=-2
kerning first=221 second=238 amount=-1
kerning first=376 second=236 amount=-1
kerning first=86 second=225 amount=-1
kerning first=376 second=227 amount=-2
kerning first=86 second=239 amount=-1
kerning first=194 second=118 amount=-1
kerning first=86 second=117 amount=-1
kerning first=87 second=111 amount=-1
kerning first=221 second=193 amount=-2
kerning first=82 second=221 amount=-1
kerning first=102 second=223 amount=-1
kerning first=221 second=224 amount=-2
kerning first=87 second=225 amount=-1
kerning first=87 second=226 amount=-1
kerning first=221 second=227 amount=-2
kerning first=87 second=228 amount=-1
kerning first=221 second=229 amount=-2
kerning first=221 second=230 amount=-2
kerning first=84 second=231 amount=-2
kerning first=84 second=232 amount=-2
kerning first=89 second=233 amount=-2
kerning first=86 second=234 amount=-1
kerning first=84 second=235 amount=-2
kerning first=84 second=236 amount=-1
kerning first=84 second=237 amount=-1
kerning first=376 second=197 amount=-2
kerning first=84 second=239 amount=-1
kerning first=87 second=193 amount=-1
kerning first=87 second=194 amount=-1
kerning first=87 second=242 amount=-1
kerning first=86 second=243 amount=-1
kerning first=84 second=244 amount=-2
kerning first=221 second=245 amount=-3
kerning first=89 second=246 amount=-3
kerning first=87 second=248 amount=-1
kerning first=86 second=249 amount=-1
kerning first=84 second=250 amount=-2
kerning first=376 second=251 amount=-2
kerning first=376 second=252 amount=-2
kerning first=192 second=253 amount=-1
kerning first=193 second=255 amount=-1
kerning first=84 second=339 amount=-2
kerning first=82 second=86 amount=-1
kerning first=84 second=353 amount=-2
kerning first=195 second=376 amount=-2
kerning first=84 second=111 amount=-2
kerning first=121 second=44 amount=-2
kerning first=76 second=8217 amount=-3
kerning first=89 second=228 amount=-2
kerning first=321 second=253 amount=-1
kerning first=194 second=89 amount=-2
kerning first=8216 second=8216 amount=-2
kerning first=194 second=8217 amount=-3
kerning first=197 second=376 amount=-2
kerning first=8217 second=353 amount=-2
kerning first=87 second=97 amount=-1
kerning first=221 second=243 amount=-3
kerning first=89 second=198 amount=-2
kerning first=221 second=118 amount=-1
kerning first=86 second=114 amount=-1
kerning first=221 second=65 amount=-2
kerning first=86 second=101 amount=-1
kerning first=376 second=101 amount=-2
kerning first=376 second=193 amount=-2
kerning first=221 second=244 amount=-3
kerning first=221 second=58 amount=-3
kerning first=86 second=193 amount=-1
kerning first=221 second=237 amount=-1
kerning first=221 second=252 amount=-2
kerning first=70 second=198 amount=-1
kerning first=84 second=195 amount=-2
kerning first=86 second=252 amount=-1
kerning first=89 second=197 amount=-2
kerning first=221 second=251 amount=-2
kerning first=195 second=84 amount=-2
kerning first=321 second=86 amount=-2
kerning first=76 second=255 amount=-1
kerning first=84 second=226 amount=-2
kerning first=80 second=46 amount=-4
kerning first=376 second=118 amount=-1
kerning first=376 second=224 amount=-2
kerning first=87 second=44 amount=-2
kerning first=86 second=224 amount=-1
kerning first=197 second=253 amount=-1
kerning first=70 second=197 amount=-1
kerning first=192 second=376 amount=-2
kerning first=84 second=233 amount=-2
kerning first=86 second=229 amount=-1
kerning first=321 second=121 amount=-1
kerning first=89 second=101 amount=-2
kerning first=221 second=46 amount=-4
kerning first=89 second=194 amount=-2
kerning first=192 second=255 amount=-1
kerning first=87 second=192 amount=-1
kerning first=221 second=113 amount=-2
kerning first=193 second=89 amount=-2
kerning first=84 second=230 amount=-2
kerning first=84 second=119 amount=-2
kerning first=84 second=45 amount=-2
kerning first=118 second=46 amount=-2
kerning first=196 second=121 amount=-1
kerning first=89 second=248 amount=-3
kerning first=87 second=234 amount=-1
kerning first=84 second=192 amount=-2
kerning first=86 second=245 amount=-1
kerning first=376 second=248 amount=-3
kerning first=82 second=376 amount=-1
kerning first=221 second=248 amount=-3
kerning first=193 second=119 amount=-1
kerning first=86 second=230 amount=-1
kerning first=89 second=225 amount=-2
kerning first=84 second=44 amount=-3
kerning first=86 second=246 amount=-1
kerning first=376 second=246 amount=-3
kerning first=84 second=194 amount=-2
kerning first=193 second=8217 amount=-3
kerning first=193 second=86 amount=-1
kerning first=84 second=255 amount=-2
kerning first=376 second=59 amount=-3
kerning first=197 second=221 amount=-2
kerning first=89 second=97 amount=-2
kerning first=70 second=192 amount=-1
kerning first=87 second=227 amount=-1
kerning first=196 second=253 amount=-1
kerning first=376 second=339 amount=-3
kerning first=89 second=224 amount=-2
kerning first=87 second=198 amount=-1
kerning first=86 second=65 amount=-1
kerning first=376 second=65 amount=-2
kerning first=80 second=196 amount=-1
kerning first=89 second=249 amount=-2
kerning first=376 second=198 amount=-2
kerning first=196 second=86 amount=-1
kerning first=89 second=339 amount=-3
kerning first=86 second=248 amount=-1
kerning first=86 second=46 amount=-3
kerning first=87 second=45 amount=-1
kerning first=84 second=225 amount=-2
kerning first=89 second=250 amount=-2
kerning first=376 second=249 amount=-2
kerning first=84 second=229 amount=-2
kerning first=197 second=8217 amount=-3
kerning first=84 second=198 amount=-2
kerning first=76 second=376 amount=-3
kerning first=70 second=195 amount=-1
kerning first=76 second=86 amount=-2
kerning first=253 second=44 amount=-2
kerning first=194 second=253 amount=-1
kerning first=321 second=87 amount=-1
kerning first=70 second=194 amount=-1
kerning first=84 second=197 amount=-2
kerning first=321 second=89 amount=-3
kerning first=196 second=119 amount=-1
kerning first=84 second=252 amount=-2
kerning first=65 second=376 amount=-2
kerning first=87 second=230 amount=-1
kerning first=84 second=196 amount=-2
kerning first=221 second=236 amount=-1
kerning first=193 second=84 amount=-2
kerning first=87 second=339 amount=-1
kerning first=221 second=97 amount=-2
kerning first=65 second=84 amount=-2
kerning first=194 second=221 amount=-2
kerning first=84 second=227 amount=-2
kerning first=89 second=65 amount=-2
kerning first=196 second=118 amount=-1
kerning first=87 second=46 amount=-2
kerning first=87 second=232 amount=-1
kerning first=89 second=244 amount=-3
kerning first=196 second=89 amount=-2
kerning first=76 second=253 amount=-1
kerning first=321 second=8217 amount=-3
kerning first=121 second=46 amount=-2
kerning first=221 second=105 amount=-1
kerning first=89 second=237 amount=-1
kerning first=321 second=376 amount=-3
kerning first=87 second=246 amount=-1
kerning first=221 second=112 amount=-2
kerning first=196 second=84 amount=-2
kerning first=89 second=230 amount=-2
kerning first=221 second=249 amount=-2
kerning first=89 second=251 amount=-2
kerning first=89 second=242 amount=-3
kerning first=221 second=242 amount=-3
kerning first=255 second=44 amount=-2
kerning first=70 second=196 amount=-1
kerning first=84 second=234 amount=-2
kerning first=65 second=253 amount=-1
kerning first=253 second=46 amount=-2
kerning first=376 second=242 amount=-3
kerning first=89 second=44 amount=-4
kerning first=87 second=224 amount=-1
kerning first=82 second=89 amount=-1
kerning first=87 second=197 amount=-1
kerning first=194 second=121 amount=-1
kerning first=86 second=236 amount=-1
kerning first=84 second=224 amount=-2
kerning first=221 second=194 amount=-2
kerning first=376 second=244 amount=-3
kerning first=193 second=221 amount=-2
kerning first=195 second=253 amount=-1
kerning first=84 second=245 amount=-2
kerning first=376 second=237 amount=-1
kerning first=86 second=237 amount=-1
kerning first=89 second=195 amount=-2
kerning first=84 second=238 amount=-1
kerning first=80 second=193 amount=-1
kerning first=376 second=229 amount=-2
kerning first=197 second=86 amount=-1
kerning first=376 second=113 amount=-2
kerning first=376 second=44 amount=-4
kerning first=86 second=44 amount=-3
kerning first=86 second=195 amount=-1
kerning first=86 second=233 amount=-1
kerning first=197 second=87 amount=-1
kerning first=86 second=58 amount=-2
kerning first=84 second=246 amount=-2
kerning first=84 second=59 amount=-3
kerning first=196 second=376 amount=-2
kerning first=376 second=230 amount=-2
kerning first=86 second=251 amount=-1
kerning first=221 second=111 amount=-3
kerning first=193 second=121 amount=-1
kerning first=70 second=65 amount=-1
kerning first=376 second=245 amount=-3
kerning first=89 second=243 amount=-3
kerning first=196 second=8217 amount=-3
kerning first=192 second=221 amount=-2
kerning first=89 second=45 amount=-2
kerning first=89 second=245 amount=-3
kerning first=84 second=253 amount=-2
kerning first=193 second=376 amount=-2
kerning first=86 second=194 amount=-1
kerning first=89 second=117 amount=-2
kerning first=86 second=250 amount=-1
kerning first=376 second=194 amount=-2
kerning first=86 second=244 amount=-1
kerning first=76 second=221 amount=-3
kerning first=376 second=117 amount=-2
kerning first=114 second=45 amount=-1
kerning first=70 second=44 amount=-4
kerning first=89 second=59 amount=-3
kerning first=84 second=46 amount=-3
kerning first=221 second=235 amount=-2
kerning first=82 second=84 amount=-1
kerning first=84 second=251 amount=-2
kerning first=84 second=65 amount=-2
kerning first=376 second=225 amount=-2
kerning first=376 second=243 amount=-3
kerning first=376 second=58 amount=-3
kerning first=86 second=197 amount=-1
kerning first=376 second=239 amount=-1
kerning first=194 second=87 amount=-1
kerning first=376 second=97 amount=-2
kerning first=89 second=229 amount=-2
kerning first=196 second=221 amount=-2
kerning first=193 second=118 amount=-1
kerning first=195 second=255 amount=-1
kerning first=65 second=255 amount=-1
kerning first=197 second=121 amount=-1
kerning first=376 second=195 amount=-2
kerning first=70 second=46 amount=-4
kerning first=86 second=242 amount=-1
kerning first=196 second=87 amount=-1
kerning first=321 second=221 amount=-3
kerning first=89 second=58 amount=-3
kerning first=194 second=119 amount=-1
kerning first=255 second=46 amount=-2
kerning first=195 second=8217 amount=-3
kerning first=84 second=249 amount=-2
kerning first=76 second=121 amount=-1
kerning first=87 second=229 amount=-1
kerning first=89 second=105 amount=-1
kerning first=221 second=195 amount=-2
kerning first=194 second=376 amount=-2
kerning first=87 second=65 amount=-1
kerning first=87 second=244 amount=-1
kerning first=192 second=86 amount=-1
kerning first=376 second=45 amount=-2
kerning first=87 second=101 amount=-1
kerning first=86 second=228 amount=-1
kerning first=376 second=228 amount=-2
kerning first=89 second=235 amount=-2
kerning first=89 second=239 amount=-1
kerning first=65 second=8217 amount=-3
kerning first=86 second=111 amount=-1
kerning first=76 second=84 amount=-2
kerning first=221 second=44 amount=-4
kerning first=80 second=194 amount=-1
kerning first=195 second=87 amount=-1
kerning first=221 second=234 amount=-2
kerning first=80 second=44 amount=-4
kerning first=197 second=119 amount=-1
kerning first=84 second=58 amount=-3
kerning first=80 second=195 amount=-1
kerning first=65 second=86 amount=-1
kerning first=321 second=255 amount=-1
kerning first=221 second=226 amount=-2
kerning first=193 second=253 amount=-1
kerning first=89 second=46 amount=-4
kerning first=86 second=105 amount=-1
kerning first=89 second=232 amount=-2
kerning first=376 second=112 amount=-2
kerning first=195 second=118 amount=-1
kerning first=221 second=233 amount=-2
kerning first=65 second=118 amount=-1
kerning first=195 second=221 amount=-2
kerning first=194 second=84 amount=-2
kerning first=86 second=238 amount=-1
kerning first=376 second=238 amount=-1
kerning first=196 second=255 amount=-1
kerning first=84 second=121 amount=-2
kerning first=89 second=111 amount=-3
kerning first=65 second=89 amount=-2
kerning first=86 second=227 amount=-1
kerning first=221 second=45 amount=-2
kerning first=76 second=87 amount=-1
kerning first=192 second=8217 amount=-3
kerning first=376 second=46 amount=-4
kerning first=197 second=84 amount=-2
kerning first=195 second=89 amount=-2
kerning first=376 second=235 amount=-2
kerning first=194 second=255 amount=-1
kerning first=89 second=238 amount=-1
kerning first=376 second=232 amount=-2
kerning first=87 second=243 amount=-1
kerning first=192 second=118 amount=-1
kerning first=221 second=196 amount=-2
kerning first=195 second=86 amount=-1
kerning first=86 second=232 amount=-1
kerning first=192 second=87 amount=-1
kerning first=221 second=339 amount=-3
kerning first=84 second=193 amount=-2
kerning first=119 second=46 amount=-2
kerning first=8217 second=115 amount=-2
kerning first=221 second=228 amount=-2
kerning first=195 second=121 amount=-1
kerning first=221 second=239 amount=-1
kerning first=86 second=235 amount=-1
kerning first=87 second=235 amount=-1
kerning first=65 second=87 amount=-1
kerning first=119 second=44 amount=-2
kerning first=84 second=242 amount=-2
kerning first=89 second=236 amount=-1
kerning first=65 second=121 amount=-1
kerning first=84 second=243 amount=-2
kerning first=221 second=198 amount=-2
kerning first=86 second=339 amount=-1
kerning first=84 second=117 amount=-2
kerning first=376 second=234 amount=-2
kerning first=87 second=245 amount=-1
kerning first=192 second=89 amount=-2
kerning first=221 second=250 amount=-2
kerning first=376 second=111 amount=-3
